{
  "servers": [
    {
      "name": "Circulo Casa",
      "description": "circulo main server",
      "website": "https://encirculo.org",
      "privacy_policy": "https://encirculo.org/privacy",
      "logo": "image/keanu.png",
      "country_code": "US",
      "domain": "casa.encirculo.org",
      "server": "casa.encirculo.org",
      "ip": "",
      "port": 443,
      "captcha": false,
      "extensions": [],
      "certificate": ""
    },
    {
      "name": "Neo Dev",
      "description": "dev server",
      "website": "https://neo.keanu.im",
      "privacy_policy": "https://keanu.im/privacy",
      "logo": "image/keanu.png",
      "country_code": "US",
      "domain": "neo.keanu.im",
      "server": "neo.keanu.im",
      "ip": "",
      "port": 443,
      "captcha": false,
      "extensions": [],
      "certificate": ""
    }

  ]
}
